// Jest Snapshot v1, https://goo.gl/fbAQLP

exports[`D3BubblePlot check bubble order 1`] = `<svg />`;

exports[`D3BubblePlot renders a snapshot with data example 1`] = `<svg />`;

exports[`D3BubblePlot renders a snapshot with data example 2`] = `<svg />`;

exports[`D3BubblePlot renders a snapshot with empty data 1`] = `<svg />`;

exports[`D3BubblePlot renders a snapshot with no data 1`] = `<svg />`;
